%YAML 1.1
%TAG !u! tag:unity3d.com,2011:
--- !u!1045 &1
EditorBuildSettings:
  m_ObjectHideFlags: 0
  serializedVersion: 2
  m_Scenes:
  - enabled: 1
    path: Assets/Scenes/VideoPlay.unity
    guid: e2015a9fd7766c74fa0679a5e47a62b2
  - enabled: 1
    path: Assets/Scenes/menu.unity
    guid: 95dc2d554e767cd47a35941d637b917e
  m_configObjects: {}
